Adult_Male 10
Adult_Female 10
Young_Male 10
Young_Female 10
Starting_Month 0
Number_of_Month 240
Area_Surface 1000
Predator_Index 5
Predator 0.85 0.9 0.94 0.98 1 
Food_Index 5
Food 0.85 0.88 0.9 0.95 1
Disease_Index 3
Disease 0.3 0.3 0.3 0.6 0.6 0.6 0.9 0.9 0.9
Climate_Index 12
Climate 0 0 1 1 1 1 2 2 1 1 1 0 1 1 0 1 1 2 2 2 1 0 0 1
Starting_Food_Index 4
Starting_Predator_Index 4
